AWSTATS DATA FILE 7.4 (build 20140726)
# If you remove this file, all statistics for date 201606 will be lost/reset.
# Last config file used to build this data file was /home/avivdi/tmp/awstats/awstats.avivdi.myweb.jce.ac.il.conf.

# Position (offset in bytes) in this file for beginning of each section for
# direct I/O access. If you made changes somewhere in this file, you should
# also remove completely the MAP section (AWStats will rewrite it at next
# update).
BEGIN_MAP 28
POS_GENERAL 2017                
POS_TIME 2689                
POS_VISITOR 5640                
POS_DAY 5782                
POS_DOMAIN 3173                
POS_LOGIN 3407                
POS_ROBOT 3562                
POS_WORMS 3694                
POS_EMAILSENDER 3825                
POS_EMAILRECEIVER 3968                
POS_SESSION 5877                
POS_SIDER 6033                
POS_FILETYPES 4103                
POS_DOWNLOADS 4183                
POS_OS 4231                
POS_BROWSER 4305                
POS_SCREENSIZE 4379                
POS_UNKNOWNREFERER 4453                
POS_UNKNOWNREFERERBROWSER 4540                
POS_ORIGIN 4622                
POS_SEREFERRALS 4752                
POS_PAGEREFS 4896                
POS_SEARCHWORDS 5044                
POS_KEYWORDS 5196                
POS_MISC 2353                
POS_ERRORS 5255                
POS_CLUSTER 3263                
POS_SIDER_404 5331                
END_MAP

# LastLine    = Date of last record processed - Last record line number in last log - Last record offset in last log - Last record signature value
# FirstTime   = Date of first visit for history file
# LastTime    = Date of last visit for history file
# LastUpdate  = Date of last update - Nb of parsed records - Nb of parsed old records - Nb of parsed new records - Nb of parsed corrupted - Nb of parsed dropped
# TotalVisits = Number of visits
# TotalUnique = Number of unique visitors
# MonthHostsKnown   = Number of hosts known
# MonthHostsUnKnown = Number of hosts unknown
BEGIN_GENERAL 8
LastLine 20160724115152 1 0 10437111223010
FirstTime 20160605181831
LastTime 20160609135928
LastUpdate 20160724150540 1 0 0 0 0
TotalVisits 2                   
TotalUnique 2                   
MonthHostsKnown 0                   
MonthHostsUnknown 2                   
END_GENERAL

# Misc ID - Pages - Hits - Bandwidth
BEGIN_MISC 10
JavaEnabled 0 0 0
DirectorSupport 0 0 0
WindowsMediaPlayerSupport 0 0 0
TotalMisc 0 0 0
AddToFavourites 0 0 0
QuickTimeSupport 0 0 0
FlashSupport 0 0 0
PDFSupport 0 0 0
JavascriptDisabled 0 0 0
RealPlayerSupport 0 0 0
END_MISC

# Hour - Pages - Hits - Bandwidth - Not viewed Pages - Not viewed Hits - Not viewed Bandwidth
BEGIN_TIME 24
0 0 0 0 0 0 0
1 0 0 0 0 0 0
2 0 0 0 0 0 0
3 0 0 0 0 0 0
4 0 0 0 0 0 0
5 0 0 0 0 0 0
6 0 0 0 0 0 0
7 0 0 0 0 0 0
8 0 0 0 0 0 0
9 0 0 0 0 0 0
10 0 0 0 0 0 0
11 0 0 0 0 0 0
12 0 0 0 0 0 0
13 1 1 427 0 1 0
14 0 0 0 0 0 0
15 0 0 0 0 0 0
16 0 0 0 0 0 0
17 0 0 0 0 0 0
18 5 5 2135 0 1 0
19 2 2 854 0 0 0
20 0 0 0 0 0 0
21 0 0 0 0 0 0
22 0 0 0 0 0 0
23 0 0 0 0 0 0
END_TIME

# Domain - Pages - Hits - Bandwidth
# The 25 first Pages must be first (order not required for others)
BEGIN_DOMAIN 2
zz 7 7 2989
il 1 1 427
END_DOMAIN

# Cluster ID - Pages - Hits - Bandwidth
BEGIN_CLUSTER 0
END_CLUSTER

# Login - Pages - Hits - Bandwidth - Last visit
# The 10 first Pages must be first (order not required for others)
BEGIN_LOGIN 0
END_LOGIN

# Robot ID - Hits - Bandwidth - Last visit - Hits on robots.txt
# The 25 first Hits must be first (order not required for others)
BEGIN_ROBOT 0
END_ROBOT

# Worm ID - Hits - Bandwidth - Last visit
# The 5 first Hits must be first (order not required for others)
BEGIN_WORMS 0
END_WORMS

# EMail - Hits - Bandwidth - Last visit
# The 20 first Hits must be first (order not required for others)
BEGIN_EMAILSENDER 0
END_EMAILSENDER

# EMail - Hits - Bandwidth - Last visit
# The 20 first hits must be first (order not required for others)
BEGIN_EMAILRECEIVER 0
END_EMAILRECEIVER

# Files type - Hits - Bandwidth - Bandwidth without compression - Bandwidth after compression
BEGIN_FILETYPES 1
html 8 3416 0 0
END_FILETYPES

# Downloads - Hits - Bandwidth
BEGIN_DOWNLOADS 0
END_DOWNLOADS

# OS ID - Hits
BEGIN_OS ID - Hits - Pages 1
win7 8 8
END_OS

# Browser ID - Hits - Pages
BEGIN_BROWSER 1
chrome50.0.2661.102 8 8
END_BROWSER

# Screen size - Hits
BEGIN_SCREENSIZE 0
END_SCREENSIZE

# Unknown referer OS - Last visit date
BEGIN_UNKNOWNREFERER 0
END_UNKNOWNREFERER

# Unknown referer Browser - Last visit date
BEGIN_UNKNOWNREFERERBROWSER 0
END_UNKNOWNREFERERBROWSER

# Origin - Pages - Hits 
BEGIN_ORIGIN 6
From0 8 8
From1 0 0
From2 0 0
From3 0 0
From4 0 0
From5 0 0
END_ORIGIN

# Search engine referers ID - Pages - Hits
BEGIN_SEREFERRALS 0
END_SEREFERRALS

# External page referers - Pages - Hits
# The 25 first Pages must be first (order not required for others)
BEGIN_PAGEREFS 0
END_PAGEREFS

# Search keyphrases - Number of search
# The 10 first number of search must be first (order not required for others)
BEGIN_SEARCHWORDS 0
END_SEARCHWORDS

# Search keywords - Number of search
# The 25 first number of search must be first (order not required for others)
BEGIN_KEYWORDS 0
END_KEYWORDS

# Errors - Hits - Bandwidth
BEGIN_ERRORS 0
END_ERRORS

# URL with 404 errors - Hits - Last URL referrer
BEGIN_SIDER_404 0
END_SIDER_404

# Host - Pages - Hits - Bandwidth - Last visit date - [Start date of last visit] - [Last page of last visit]
# [Start date of last visit] and [Last page of last visit] are saved only if session is not finished
# The 25 first Hits must be first (order not required for others)
BEGIN_VISITOR 2
10.8.6.2 7 7 2989 20160605190841
79.178.206.37 1 1 427 20160609135928
END_VISITOR

# Date - Pages - Hits - Bandwidth - Visits
BEGIN_DAY 2
20160605 7 7 2989 1
20160609 1 1 427 1
END_DAY

# Session range - Number of visits
BEGIN_SESSION 2
30mn-1h 1
0s-30s 1
END_SESSION

# URL - Pages - Bandwidth - Entry - Exit
# The 25 first Pages must be first (order not required for others)
BEGIN_SIDER 1
/ 8 3416 2 2
END_SIDER
